S:\codes\server\kyrocloud\module-proxy\src\main\java\eu\kyrocloud\module\ProxyModule.java
S:\codes\server\kyrocloud\module-proxy\src\main\java\eu\kyrocloud\module\bootstrap\velocity\VelocityBootstrap.java
S:\codes\server\kyrocloud\module-proxy\src\main\java\eu\kyrocloud\module\bootstrap\ProxyHandler.java
S:\codes\server\kyrocloud\module-proxy\src\main\java\eu\kyrocloud\module\events\bungee\BungeeConnectEvent.java
S:\codes\server\kyrocloud\module-proxy\src\main\java\eu\kyrocloud\module\commands\ProxyCommand.java
S:\codes\server\kyrocloud\module-proxy\src\main\java\eu\kyrocloud\module\bootstrap\bungee\BungeeBootstrap.java
S:\codes\server\kyrocloud\module-proxy\src\main\java\eu\kyrocloud\module\bootstrap\tablist\TablistConfiguration.java
S:\codes\server\kyrocloud\module-proxy\src\main\java\eu\kyrocloud\module\events\velocity\VelocityConnectEvent.java
